<?xml version="1.0" encoding="utf-8"?>
<svg xmlns="http://www.w3.org/2000/svg" xmlns:xlink="http://www.w3.org/1999/xlink" style="margin: auto; background: none; display: block; shape-rendering: auto;" width="200px" height="200px" viewBox="0 0 100 100" preserveAspectRatio="xMidYMid">
<circle cx="50" cy="50" fill="none" stroke="#ffffff" stroke-width="1" r="6" stroke-dasharray="28.274333882308138 11.42477796076938">
  <animateTransform attributeName="transform" type="rotate" repeatCount="indefinite" dur="1.1764705882352942s" values="0 50 50;360 50 50" keyTimes="0;1"></animateTransform>
</circle>
<!-- [ldio] generated by https://loading.io/ --></svg>